…
Abstract

Author : Haoting Yu 2020-09-25 This is a research project of local church/tempo etc in GTA, last updated 2006. People of different religions can have a clear idea of how where in GTA it has the places for them to worship. Also we can see the population divided by religion; and where exactly the places are, precisely, which neighborhood.

Introduction

This is a study of recording and organizing religious worship places in GTA, it is important for culture references not only for citizens, and also for the city government. It is a comprehensive research and data and shows precise number of places for different religions, this leads to majority citizens preferences,and what all the religions are being recognized in GTA. People can have a better idea of where they should go to for their own preferences, and make their life easier.
What I did, was to make three histograms in which the first one categorized religions into different groups,and the amount of the places, turns out that most churches being recorded is christian church, and followed by Jewish, and then Buddhist. The second graph shows that the city of Toronto has the biggest number of facilities in GTA, followed by North York, then Scarborough. The third graph gives me the more precise locations, other than just viewing by city. Precisely how many churches/temples in different neighborhood. The down side of this data is that, it haven’t been updated for over a decade, so we are having difficulties looking for the current status of these places. As well as the lack of information on contacts, neither by phone, nor email, even the name of the people in charge is missing in some area. So the map itself is very convenient to look at,however it is hard to make actual contacts for people who are in need of it.

library(opendatatoronto)
wanted_data <- list_packages()
wanted_data
## # A tibble: 50 x 10
##    title id    topics civic_issues excerpt dataset_category num_resources
##    <chr> <chr> <chr>  <chr>        <chr>   <chr>                    <int>
##  1 Buil… 8219… Devel… <NA>         Provid… Document                     3
##  2 Buil… 108c… Devel… Affordable … Provid… Document                     3
##  3 Lobb… 6a87… City … <NA>         The Lo… Document                     2
##  4 Mobi… f2a2… Publi… Mobility     An hou… Document                     4
##  5 Scho… d752… Trans… Mobility     An hou… Document                     5
##  6 Traf… 1a10… Locat… Mobility     This d… Document                    25
##  7 Dail… 8a6e… City … Affordable … Daily … Table                        8
##  8 Stre… ccfd… City … <NA>         Poster… Map                          1
##  9 Stre… cf70… City … <NA>         Poster… Map                          1
## 10 Stre… 3944… City … <NA>         Litter… Map                          1
## # … with 40 more rows, and 3 more variables: formats <chr>, refresh_rate <chr>,
## #   last_refreshed <date>
…
## # A tibble: 1 x 10
##   title id    topics civic_issues excerpt dataset_category num_resources formats
##   <chr> <chr> <chr>  <chr>        <chr>   <chr>                    <int> <chr>  
## 1 Plac… 8e22… <NA>   <NA>         <NA>    <NA>                         2 <NA>   
## # … with 2 more variables: refresh_rate <chr>, last_refreshed <date>
resources <- list_package_resources("8e22e693-3394-4dfa-8dc0-eb436db38603")
datastore_resources <- filter(resources, tolower(format) %in% c('csv', 'geojson'))
data <- filter(datastore_resources, row_number()==1) %>% get_resource()
data
## Simple feature collection with 1407 features and 44 fields
## geometry type:  POINT
## dimension:      XY
## bbox:           xmin: -79.63824 ymin: 43.58952 xmax: -79.13851 ymax: 43.8292
## CRS:            EPSG:4326
## # A tibble: 1,407 x 45
##    `_id` ADDRESS_POINT_ID ADDRESS_NUMBER LINEAR_NAME_FULL ADDRESS_FULL
##    <int>            <int> <chr>          <chr>            <chr>       
##  1     1           850128 851            Ossington Ave    851 Ossingt…
##  2     2         10312972 1219           Dufferin St      1219 Duffer…
##  3     3         10877578 700            Dovercourt Rd    700 Doverco…
##  4     4          6710178 1140           Bloor St W       1140 Bloor …
##  5     5           872604 524            St Clarens Ave   524 St Clar…
##  6     6           773333 1326           Bloor St W       1326 Bloor …
##  7     7         14200193 1330           Bloor St W       1330 Bloor …
##  8     8           773325 1307           Bloor St W       1307 Bloor …
##  9     9           773312 1287           Bloor St W       1287 Bloor …
## 10    10          9246318 7              Croatia St       7 Croatia St
## # … with 1,397 more rows, and 40 more variables: POSTAL_CODE <chr>,
## #   MUNICIPALITY <chr>, CITY <chr>, PLACE_NAME <chr>, GENERAL_USE_CODE <int>,
## #   CENTRELINE_ID <int>, LO_NUM <int>, LO_NUM_SUF <chr>, HI_NUM <int>,
## #   HI_NUM_SUF <chr>, LINEAR_NAME_ID <int>, X <lgl>, Y <lgl>, LONGITUDE <lgl>,
## #   LATITUDE <lgl>, OBJECTID <int>, FTH_PRIORITY <chr>, FTH_ORGANIZATION <chr>,
## #   FTH_FAITH <chr>, FTH_DENOMINATION <chr>, FTH_GROUPING <chr>,
## #   FTH_PHONE <chr>, FTH_EXTENSION <chr>, FTH_FAX <chr>, FTH_CELL <chr>,
## #   FTH_HOME <chr>, FTH_SALUTATION <chr>, FTH_FIRST_NAME <chr>,
## #   FTH_LAST_NAME <chr>, FTH_POSITION <chr>, FTH_EMAIL <chr>,
…
